2408011|John Smith|123 Here Street|514-456-4567       
4208071|Sue Jones|43 Rose Court Street|514-345-7867         
       2038990|Fan Yuhong|165 Happy Lane|514-345-453      
       40101813|Juan-Carlos Sreng-Flores|165 Depressed Lane|514-812-8247      